<?xml version="1.0" encoding="UTF-8"?>
<svg width="60px" height="65px" viewBox="0 0 60 65" version="1.1" xmlns="http://www.w3.org/2000/svg" xmlns:xlink="http://www.w3.org/1999/xlink">
    <!-- Generator: Sketch 55.1 (78136) - https://sketchapp.com -->
    <title>salad</title>
    <desc>Created with Sketch.</desc>
    <g id="Page-2" stroke="none" stroke-width="1" fill="none" fill-rule="evenodd">
        <g id="Starting-page" transform="translate(-176.000000, -213.000000)" fill="#5EB087" fill-rule="nonzero">
            <g id="Recommended-Categories" transform="translate(75.000000, 159.000000)">
                <g id="Recommended-Items" transform="translate(0.000000, 54.000000)">
                    <g id="salad" transform="translate(101.000000, 0.000000)">
                        <path d="M59.9976245,22.6422881 C60.0911794,18.2450486 57.4140661,14.2901611 53.2662882,12.5802612 C52.6612648,8.82820123 49.526657,5.89538574 45.631272,5.39848334 C45.5963175,5.02456665 45.5228099,4.65213772 45.4112636,4.28417209 C44.7245079,2.02133179 42.6560164,0.317382812 40.2672787,0.0441360156 C38.7405838,-0.13092041 37.2344506,0.240516631 36.0079543,1.07067111 C34.9181924,0.374908447 33.6505731,0 32.3510834,0 C29.0046917,0 26.2237426,2.38483426 25.7395182,5.48576361 C25.6202612,5.50907132 25.5051165,5.54180148 25.3884299,5.5690766 C25.2784255,5.3126907 25.164823,5.05977634 25.0357993,4.81380466 C23.3261066,1.54823297 20.3061296,-0.350112852 17.5077032,0.0857925098 C15.6710431,0.373420684 14.1494887,1.57749173 13.2566034,3.39302057 C11.6414941,2.67593384 9.99348606,2.55393988 8.5043161,3.05976861 C6.91645073,3.5998154 5.68275795,4.75280762 4.93688783,6.39575955 C3.94787746,8.57280734 3.94684945,11.371727 4.90296122,14.0342712 C3.6142664,14.8882294 2.6509579,16.1423874 2.08808567,17.715416 C1.1412264,20.356636 1.45736021,23.5433579 2.95424077,26.4622879 C3.118219,26.7806626 3.29710459,27.0970535 3.49243914,27.4074936 C2.08705753,28.2892227 1.03430636,29.596939 0.470405987,31.1922837 C-0.426077429,33.7239075 -0.0292395868,36.7073059 1.55862579,39.3743134 C2.28804667,40.5997085 3.25392521,41.7095566 4.37864192,42.6220322 C4.00287963,44.1395188 4.28714297,45.8072662 5.20264578,47.3168183 C6.49134073,49.4378281 8.80862699,50.8670425 11.2503107,51.0966492 C15.0963478,58.0646897 19.8681687,61.0570144 27.2117249,64.0602493 L27.293457,64.0944672 C28.3261607,64.7188186 29.5033093,65 30.6681208,65 C31.3600169,65 32.0421462,64.8968506 32.6862366,64.7208023 C32.6965174,64.717331 32.7073122,64.7188186 32.7175929,64.7153472 C32.7227333,64.7133637 32.7258176,64.7098923 32.7304439,64.7074127 C33.2784091,64.5526885 33.8001583,64.3483735 34.2638212,64.0875244 C36.4854962,62.8363418 37.3855779,60.698967 36.6119498,58.5105132 C34.3928449,52.2288132 34.5732724,47.5112153 37.1491202,44.4916153 C41.6073775,39.2671967 51.9508633,40.5511093 52.052643,40.5679702 L53.2560075,40.7256699 L53.3762924,39.5602798 C53.3927417,39.4070435 53.7381757,35.7685471 51.5375762,33.2969284 C51.4100946,33.1536103 51.2759306,33.0167388 51.136112,32.8868103 C51.7575847,32.7539062 52.3734031,32.5639724 52.9773984,32.3165131 C57.1519065,30.6140518 59.9086957,26.8178559 59.9976245,22.6422881 L59.9976245,22.6422881 Z M13.0201457,49.4849395 L12.6921891,48.8640595 L11.9699648,48.8685227 C11.9596839,48.8685227 11.9488891,48.8685227 11.9396365,48.8685227 C10.0962938,48.8685227 8.20360352,47.7894211 7.22384578,46.1742402 C6.50984612,44.99794 6.36385914,43.7140274 6.82238162,42.651291 L7.17809637,41.8280792 L6.43119824,41.3034058 C5.28077966,40.4945755 4.29742374,39.4387817 3.58856441,38.2476044 C2.33688025,36.1439514 2.0068675,33.8369751 2.68591253,31.9197846 C3.19429686,30.4856109 4.21363541,29.4288254 5.63443826,28.8619995 L7.02131461,28.3095551 L6.12842937,27.1476364 C5.71051598,26.6026306 5.34760475,26.034317 5.0525465,25.4595566 C3.85072419,23.115387 3.568517,20.4959869 4.30102205,18.453331 C4.78576053,17.0980073 5.67299119,16.0908127 6.86453273,15.5418396 L7.86639416,15.079155 L7.43922801,14.0888213 L7.38731014,13.9817046 C6.35871869,11.6375351 6.24254602,9.14508816 7.0809431,7.30228421 C7.41455415,6.5673447 8.06892533,5.6027984 9.28257056,5.19069675 C10.4504664,4.79347223 11.8471095,5.06870267 13.2221628,5.96084595 L14.5730565,6.83959961 L15.0038209,5.32310492 C15.4880452,3.62262723 16.5366841,2.52616889 17.8829513,2.31639865 C19.6373652,2.02827447 21.7161377,3.48724365 22.944176,5.8314133 C23.0423573,6.01985935 23.1338562,6.2117768 23.2181586,6.40865329 C23.1909146,6.42303467 23.1688109,6.44237521 23.1420809,6.45725247 C22.9020248,6.59461969 22.6691653,6.74388889 22.4455584,6.90406793 C22.3108804,6.99928277 22.1844268,7.10044867 22.0569452,7.20359809 C21.9716149,7.27252957 21.8883405,7.34344482 21.8066085,7.41436008 C21.335749,7.82199856 20.9183497,8.27625271 20.5585225,8.77166748 C20.5317926,8.80886081 20.5071188,8.84655002 20.4803886,8.88374322 C20.2732312,9.17930609 20.0881772,9.48627469 19.9231709,9.80613715 C19.8820478,9.88399509 19.8398965,9.96185303 19.8013436,10.0407029 C19.7298923,10.1924514 19.6646094,10.344696 19.6029247,10.5004121 C19.5371278,10.6630707 19.4810975,10.8277129 19.4271235,10.9948349 C19.3824021,11.1341858 19.3381948,11.271553 19.3022122,11.4138794 C19.2374432,11.6568755 19.1870675,11.904335 19.1474864,12.15477 C19.1336075,12.2465134 19.1207564,12.3367691 19.1089336,12.4295044 C19.0703807,12.7389526 19.0446787,13.0513764 19.0446787,13.369751 C19.0446787,13.5765457 19.0539315,13.7828445 19.0703807,13.9931106 C14.634227,14.7627639 11.3217619,18.481102 11.3217619,22.9492569 C11.3217619,24.2411041 11.6106517,25.5215454 12.1658135,26.6993332 C10.9192696,27.9857254 10.2191491,29.6782685 10.2191491,31.4645386 C10.2191491,34.1340256 11.8085566,36.5550613 14.2512683,37.7204514 C14.2456138,38.3244705 14.2548666,38.9126206 14.2759421,39.4898606 C14.2831386,39.6783066 14.2980458,39.8612976 14.3078125,40.04776 C14.327346,40.4315948 14.3509918,40.8144379 14.3838903,41.1878586 C14.4023956,41.4015961 14.4280976,41.6103745 14.4502013,41.8201446 C14.486698,42.1578598 14.526279,42.4935913 14.5745986,42.8218842 C14.6049269,43.0366135 14.6398815,43.249855 14.6753501,43.461113 C14.7277821,43.7775039 14.7853545,44.0899277 14.8485813,44.3993759 C14.8907324,44.6081543 14.9349398,44.8159409 14.9817172,45.0227356 C15.0521404,45.3306961 15.1292463,45.6371689 15.2099503,45.9396743 C15.2618682,46.1350632 15.3132722,46.3299561 15.3682742,46.5233613 C15.4608012,46.8407441 15.5615528,47.1531677 15.6653886,47.4636079 C15.7219328,47.6342011 15.7753929,47.8067779 15.8355355,47.9763794 C15.9676434,48.350296 16.1126022,48.7197495 16.2627015,49.0877151 C16.3038246,49.1878891 16.3398074,49.2920303 16.3819585,49.3922043 C16.5772932,49.8573684 16.7870209,50.3195572 17.0101138,50.7767868 C17.0733406,50.9067154 17.1437638,51.0351563 17.2090468,51.164093 C17.3740531,51.491394 17.5416297,51.8177032 17.7210291,52.1430206 C17.8166404,52.3170852 17.9199621,52.4911499 18.0207137,52.6657104 C18.1810938,52.9449082 18.342502,53.2236099 18.5131628,53.5003281 C18.6288215,53.6887741 18.7496206,53.8772202 18.8688775,54.0646743 C19.0364541,54.3280029 19.2071149,54.5908355 19.3839442,54.8541641 C19.513996,55.0485611 19.647132,55.2424622 19.7818102,55.4368591 C19.9632658,55.6977081 20.1493479,55.9585571 20.3400561,56.2203979 C20.4803886,56.4147949 20.6222634,56.608696 20.7682503,56.803093 C20.9687254,57.069397 21.175883,57.3381806 21.3840687,57.6069641 C21.5326258,57.7978897 21.6775848,57.9888154 21.8312824,58.1807327 C22.0584874,58.4663772 22.2959733,58.7554932 22.5334591,59.0446091 C22.6784181,59.2216492 22.8187506,59.3967056 22.9678217,59.5752334 C22.9806727,59.5911026 22.9935237,59.6069717 23.0063747,59.6228408 C18.7074693,57.3123931 15.6689868,54.5030594 13.0201457,49.4849395 Z M46.8757597,30.6304169 L46.5642522,30.5803299 L45.431311,30.8332444 L45.3069137,33.3251953 L46.4753235,33.3852005 C47.9161739,33.4561157 48.9879445,33.9068985 49.75232,34.7593689 C50.6806737,35.7948303 50.9613389,37.2235489 51.0374166,38.2069397 C47.8174785,38.0046082 39.6314128,38.0348587 35.3463866,43.0485154 C32.2143491,46.7127991 31.8951311,52.1588897 34.3949011,59.2365264 C34.9485207,60.8050918 33.809925,61.725502 33.0815323,62.1351242 C33.0301284,62.1648789 32.9715281,62.1837234 32.9190961,62.2109985 C30.6295679,56.7773056 29.2005405,51.9431687 28.4305106,47.6545334 C28.4253701,47.6272583 28.4233141,47.6014709 28.4176596,47.5756836 C27.8090378,44.154396 27.6111329,41.07975 27.7257635,38.3254624 C29.3645188,35.630188 34.181061,35.5215835 34.2298947,35.5205918 C34.8760413,35.5101777 35.3921361,34.9988938 35.3828833,34.3755341 C35.3736307,33.7566376 34.8529094,33.2622146 34.2139595,33.2622146 C34.208819,33.2622146 34.2047067,33.2622146 34.1995664,33.2622146 C34.008858,33.2641983 30.6717191,33.3346176 28.0244201,34.9359131 C28.3472362,32.699852 28.8849207,30.7191848 29.5506008,28.9601899 C29.6163978,28.8833237 29.6760262,28.7995147 29.7202335,28.703804 C29.7886007,28.5594941 29.8199571,28.4077454 29.8220132,28.2589722 C30.6614383,26.2217712 31.6715242,24.5123672 32.7227333,23.0861282 C37.970554,22.032814 41.9301937,23.6167527 42.0180943,23.6519623 C42.1717919,23.7174224 42.3306298,23.7466812 42.4853554,23.7466812 C42.9361674,23.7466812 43.3653896,23.4937668 43.5586681,23.0717468 C43.8182577,22.5004578 43.5478733,21.8339539 42.956729,21.583519 C42.7942927,21.5145874 39.5651018,20.1855469 34.9217907,20.511856 C37.1892152,18.2296753 39.1811151,17.1952056 39.4772013,17.0499038 C41.1776411,16.2638855 43.662504,17.2790146 44.4782834,17.7387237 C44.6643653,17.8448486 44.8679246,17.8944397 45.0704559,17.8944397 C45.4708919,17.8944397 45.8620754,17.6955796 46.0795137,17.3390198 C46.4074704,16.8014526 46.2234445,16.1101533 45.6651986,15.7932663 C45.5315485,15.7164001 42.9001846,14.2485046 40.2050801,14.5430756 C40.4353694,13.6276245 40.9468377,12.7954864 41.2079694,12.4612427 C41.6001809,11.9663238 41.5014855,11.2586594 40.9879608,10.8802795 C40.4764925,10.5018997 39.739875,10.594635 39.3481776,11.0915375 C39.274156,11.1827851 37.7387225,13.147583 37.7423208,15.4094314 C36.0393108,16.4156342 31.6396539,19.4654846 28.5610763,25.5944443 C28.3950419,25.9242249 28.2346619,26.278801 28.0753098,26.6348648 C24.8826158,24.5287324 25.4079633,20.7821274 25.4372634,20.6006241 C25.536987,19.9861909 25.1026242,19.4089507 24.4647023,19.3107605 C23.8278084,19.2071152 23.2263832,19.6326065 23.1246035,20.2480317 C22.7853381,22.2976303 23.2721326,26.5208054 27.2153232,28.7891006 C26.3445416,31.2602234 25.6845161,34.209404 25.4804427,37.6906967 C25.457311,37.800293 25.4521705,37.9064179 25.4619373,38.0145264 C25.3401102,40.4549026 25.457311,43.161583 25.8644296,46.1256409 C24.3803999,45.3376389 23.7013549,44.1846465 23.6581757,44.1067886 C23.3528368,43.5588074 22.6480897,43.3490371 22.0795629,43.639145 C21.5079519,43.9292527 21.2869154,44.6126175 21.5891701,45.164566 C21.6508548,45.2791214 23.0521241,47.7775193 26.2905676,48.7430572 C27.0770468,52.9077148 28.4592967,57.563324 30.6131186,62.7346802 C29.8734171,62.724762 29.1439962,62.547226 28.5214954,62.1688462 L28.5225235,62.1658706 C28.3965839,62.0875168 28.291206,62.0121384 28.1878843,61.9352722 C28.0604027,61.8350982 27.931379,61.736908 27.8193186,61.6159058 C27.8136642,61.6099548 27.8064677,61.6044998 27.8008132,61.5985489 L27.3088783,61.0589981 C19.9797151,52.9211045 16.3110212,46.9681931 16.6029952,37.0132827 L16.627669,36.1900711 L15.8221704,35.9168243 C13.8688235,35.2493286 12.5554547,33.4610748 12.5554547,31.4665222 C12.5554547,30.047226 13.2087979,28.7162017 14.3463654,27.8151321 L15.1143392,27.2076416 L14.6157216,26.3774872 C13.9896226,25.3330994 13.6580676,24.1483689 13.6580676,22.9527283 C13.6580676,19.2715835 16.6477164,16.2688447 20.4634254,16.1146164 L21.8852564,16.0570908 L21.5526733,14.7220993 C21.4380427,14.2638779 21.3809844,13.8086319 21.3809844,13.3732224 C21.3809844,13.0265808 21.4205654,12.6888657 21.4827641,12.3566055 C21.4976712,12.2718047 21.522345,12.1909714 21.5408504,12.1081543 C21.602021,11.8497849 21.6780988,11.5953828 21.77371,11.3508987 C21.7994119,11.282959 21.8266559,11.2165069 21.8559562,11.1495591 C21.9834378,10.8594512 22.1283966,10.5772781 22.3016276,10.3129578 C22.3088242,10.3030396 22.3134505,10.2916336 22.320133,10.2812195 C22.6974375,9.71240994 23.1785776,9.21451565 23.7321972,8.80092624 C23.808275,8.74439236 23.888979,8.6948013 23.9671129,8.64173883 C24.1547371,8.51528171 24.3490436,8.4012222 24.5500328,8.29608914 C24.6764862,8.23062894 24.8029398,8.16764838 24.9350477,8.1111145 C25.5508659,7.84332275 26.215518,7.65834812 26.9212931,7.60776517 L28.0028304,7.52841946 L28.0028304,6.47857666 L28.0007742,6.39030463 C28.0403552,4.10713189 29.9751967,2.25986478 32.3510834,2.25986478 C33.4094889,2.25986478 34.4396225,2.64865872 35.2502614,3.3543396 L36.0711811,4.06894681 L36.8576603,3.31912991 C37.6837204,2.53112793 38.8182037,2.15373996 39.992268,2.28862766 C41.4619045,2.45574951 42.7377484,3.51352688 43.1638864,4.92042535 C43.3057612,5.38459771 43.3479123,5.85670465 43.29034,6.32286078 L43.1695409,7.58197781 L44.486508,7.58197781 C47.9125756,7.58197781 50.7788551,10.1656723 51.0142848,13.4639741 L51.0682589,14.2053604 L51.7951095,14.4518281 C55.3800152,15.6643296 57.7348262,18.9378357 57.6566924,22.5976562 C57.5862691,25.8835601 55.391324,28.8813401 52.0665219,30.2361679 C50.3928121,30.9160615 48.6944284,31.0445022 46.8757597,30.6304169 L46.8757597,30.6304169 Z" id="Shape"></path>
                    </g>
                </g>
            </g>
        </g>
    </g>
</svg>