<?xml version="1.0" encoding="UTF-8"?>
<svg width="60px" height="60px" viewBox="0 0 60 60" version="1.1" xmlns="http://www.w3.org/2000/svg" xmlns:xlink="http://www.w3.org/1999/xlink">
    <!-- Generator: Sketch 55.1 (78136) - https://sketchapp.com -->
    <title>bowl-of-white-rice</title>
    <desc>Created with Sketch.</desc>
    <g id="Page-2" stroke="none" stroke-width="1" fill="none" fill-rule="evenodd">
        <g id="Starting-page" transform="translate(-565.000000, -213.000000)" fill="#5EB087" fill-rule="nonzero">
            <g id="Recommended-Categories" transform="translate(75.000000, 159.000000)">
                <g id="Recommended-Items" transform="translate(0.000000, 54.000000)">
                    <g id="bowl-of-white-rice" transform="translate(490.000000, 0.000000)">
                        <path d="M59.0769184,20.2415226 C58.247905,20.2415226 57.3108649,20.2418713 56.5131063,20.2415226 C56.1762817,16.8108092 54.1149755,13.3295365 51.1472773,12.3685602 C50.8732659,8.15086445 47.7987549,4.81603952 44.0593944,4.81603952 C43.4085036,4.81603952 42.7715712,4.91576348 42.1543628,5.11381665 C41.0194762,2.23332849 38.4929879,0.311027168 35.6773159,0.311027168 C33.5838446,0.311027168 31.6436132,1.35359582 30.3123973,3.1193375 C28.9820917,1.18099666 26.9298889,0 24.7271771,0 C21.6851347,0 19.0591163,2.17370333 18.0538009,5.3453436 C17.2530079,4.99665843 16.4000223,4.81569083 15.5339884,4.81569083 C11.7624628,4.81569083 8.66762083,8.20909487 8.43973317,12.478396 C5.50116574,13.5112015 3.4438044,16.6267035 3.42499077,20.2348976 C2.61691507,20.2342002 1.81551517,20.2338515 1.02443243,20.2338515 C0.458506339,20.2338515 0,20.7607148 0,21.410664 C0,29.2658434 0.200881004,36.2221125 2.66971461,41.8052593 C4.8863849,46.818306 8.89338438,50.7117245 15.5176024,54.2317013 C14.7265196,55.2359146 14.2294757,56.8851954 14.2294757,58.8231876 C14.2294757,59.4731367 14.687982,60 15.2536047,60 L42.8629083,60 C43.4282275,60 43.8870373,59.4731367 43.8870373,58.8231876 C43.8870373,57.0822025 43.4858822,55.5744879 42.8310465,54.5577219 C50.069135,50.8358565 54.6690673,46.3329362 57.2359138,40.4861834 C59.7884984,34.6704635 60,28.2511695 60,21.6362633 C60,20.9859654 59.6428445,20.2415226 59.0769184,20.2415226 Z M9.64077095,14.562836 C10.1523803,14.4585791 10.5149978,13.9303211 10.4840463,13.3344181 C10.4773705,13.2033125 10.4740326,13.0885951 10.4740326,12.9832922 C10.4740326,9.77748075 12.7435025,7.16931571 15.5333815,7.16931571 C16.4725458,7.16931571 17.3898619,7.46779021 18.1861032,8.03266018 C18.4768041,8.2390818 18.8379044,8.2648845 19.1489362,8.10204853 C19.4596645,7.93921255 19.6796626,7.60865901 19.7345862,7.2212698 C20.1357413,4.40075548 22.2352816,2.35362487 24.7262668,2.35362487 C26.705946,2.35362487 28.5147854,3.69397065 29.3346955,5.76829871 C29.4970389,6.17904983 29.8493392,6.44684004 30.2419979,6.45799797 C30.6343531,6.46810984 30.9978809,6.22158942 31.1778242,5.82060148 C32.0502304,3.8738922 33.7744084,2.66465204 35.676709,2.66465204 C37.9461789,2.66465204 39.9522579,4.41958448 40.554294,6.93220979 C40.6337968,7.26450676 40.8358915,7.53996804 41.1074754,7.68606712 C41.3793627,7.83181752 41.692822,7.83390963 41.9659231,7.69094871 C42.6268276,7.34505303 43.3311249,7.16966439 44.0584841,7.16966439 C46.8483632,7.16966439 49.1181364,9.77782943 49.1181364,12.9836409 C49.1181364,13.0826674 49.1163158,13.1809967 49.1117641,13.2789772 C49.0850609,13.9010315 49.4846988,14.4397501 50.0239216,14.507395 C52.2873225,14.7915734 54.0685484,17.5315415 54.4381451,20.24222 C54.4381451,20.24222 5.7882253,20.2380357 5.4723384,20.2380357 C5.49236581,17.4349557 7.23899883,15.0527386 9.64077095,14.562836 Z M40.4241158,53.1852971 C40.420171,53.1870405 40.41744,53.1891326 40.4137987,53.1908761 L36.0350783,53.1908761 C35.4694557,53.1908761 35.0109493,53.7177394 35.0109493,54.3676885 C35.0109493,55.0176377 35.4694557,55.5445009 36.0350783,55.5445009 L40.7157271,55.5445009 C41.0188693,55.5445009 41.5398854,56.3349702 41.7483525,57.6467238 L16.3672501,57.6467238 C16.5757173,56.3346215 17.0967334,55.5445009 17.400179,55.5445009 L28.2513946,55.5445009 C28.8170172,55.5445009 29.2755236,55.0176377 29.2755236,54.3676885 C29.2755236,53.7177394 28.8170172,53.1908761 28.2513946,53.1908761 L18.5475069,53.1908761 C18.5450794,53.18983 18.5429553,53.1880866 18.5405277,53.1870405 C11.0466345,49.5980241 6.71494824,45.7590004 4.49524349,40.7393288 C2.35018637,35.8891181 2.07283706,29.6507918 2.04947175,22.5881738 C12.1041425,22.5916606 57.134563,22.5888711 57.9453697,22.5888711 C57.8637428,35.6188871 56.2224054,45.7056516 40.4241158,53.1852971 Z" id="Shape"></path>
                    </g>
                </g>
            </g>
        </g>
    </g>
</svg>