<?xml version="1.0" encoding="UTF-8"?>
<svg width="118px" height="33px" viewBox="0 0 118 33" version="1.1" xmlns="http://www.w3.org/2000/svg" xmlns:xlink="http://www.w3.org/1999/xlink">
    <!-- Generator: Sketch 53.2 (72643) - https://sketchapp.com -->
    <title>Group 4</title>
    <desc>Created with Sketch.</desc>
    <g id="Page-1" stroke="none" stroke-width="1" fill="none" fill-rule="evenodd">
        <g id="Group-4" transform="translate(0.000000, -2.000000)">
            <g id="Group" transform="translate(22.000000, 0.000000)" font-family="STXihei, STHeiti" font-size="40" font-weight="300" letter-spacing="0.06160004">
                <g id="Group-2" transform="translate(2.000000, 2.000000)" fill="#000000">
                    <text id="dible">
                        <tspan x="0" y="34">dible</tspan>
                    </text>
                </g>
                <g id="Group-3" fill="#FFFFFF">
                    <text id="dible">
                        <tspan x="0" y="34">dible</tspan>
                    </text>
                </g>
            </g>
            <path d="M7.38918346,24.8695652 C7.47826131,25.6666707 7.67126045,26.4239095 7.96818664,27.1413043 C8.26511283,27.8586992 8.64368805,28.4891277 9.10392365,29.0326087 C9.56415925,29.5760897 10.0986184,30.0072448 10.7073171,30.326087 C11.3160158,30.6449291 11.9692436,30.8043478 12.6670201,30.8043478 C13.9586491,30.8043478 15.0312789,30.4601484 15.8849417,29.7717391 C16.7386045,29.0833299 17.417813,28.0507315 17.9225875,26.673913 L22.7773065,26.673913 C22.4803803,27.9927602 22.001594,29.1666615 21.3409332,30.1956522 C20.6802724,31.2246428 19.8971413,32.0941993 18.9915164,32.8043478 C18.0858915,33.5144963 17.0874922,34.0579691 15.9962884,34.4347826 C14.9050847,34.8115961 13.7804936,35 12.6224814,35 C10.9893874,35 9.51962477,34.6811626 8.21314952,34.0434783 C6.90667427,33.4057939 5.79321775,32.55073 4.87274655,31.4782609 C3.95227536,30.4057917 3.2433747,29.1558042 2.74602333,27.7282609 C2.24867196,26.3007175 2,24.7971093 2,23.2173913 C2,21.739123 2.24867196,20.3224705 2.74602333,18.9673913 C3.2433747,17.6123121 3.95227536,16.4166718 4.87274655,15.3804348 C5.79321775,14.3441977 6.9103858,13.5217422 8.2242842,12.9130435 C9.5381826,12.3043448 11.0116567,12 12.6447508,12 C14.2184596,12 15.643684,12.2753596 16.9204666,12.826087 C18.1972492,13.3768143 19.2884366,14.1412995 20.1940615,15.1195652 C21.0996864,16.097831 21.793741,17.2499934 22.276246,18.576087 C22.7587511,19.9021805 23,21.3333257 23,22.8695652 L23,24.8695652 L7.38918346,24.8695652 Z M17.6553552,20.9782609 C17.5662774,20.2826052 17.3844128,19.6521767 17.1097561,19.0869565 C16.8350994,18.5217363 16.4750818,18.0326108 16.0296925,17.6195652 C15.5843032,17.2065197 15.0572671,16.8876823 14.4485684,16.6630435 C13.8398697,16.4384047 13.1717958,16.326087 12.4443266,16.326087 C11.7762427,16.326087 11.1564186,16.4492741 10.5848356,16.6956522 C10.0132527,16.9420302 9.50848575,17.2753602 9.07051962,17.6956522 C8.63255348,18.1159441 8.26882435,18.6086928 7.97932131,19.173913 C7.68981828,19.7391333 7.49310762,20.3405765 7.38918346,20.9782609 L17.6553552,20.9782609 Z" id="Combined-Shape" fill="#000000" fill-rule="nonzero"></path>
            <path d="M5.38918346,22.8695652 C5.47826131,23.6666707 5.67126045,24.4239095 5.96818664,25.1413043 C6.26511283,25.8586992 6.64368805,26.4891277 7.10392365,27.0326087 C7.56415925,27.5760897 8.09861838,28.0072448 8.70731707,28.326087 C9.31601577,28.6449291 9.96924359,28.8043478 10.6670201,28.8043478 C11.9586491,28.8043478 13.0312789,28.4601484 13.8849417,27.7717391 C14.7386045,27.0833299 15.417813,26.0507315 15.9225875,24.673913 L20.7773065,24.673913 C20.4803803,25.9927602 20.001594,27.1666615 19.3409332,28.1956522 C18.6802724,29.2246428 17.8971413,30.0941993 16.9915164,30.8043478 C16.0858915,31.5144963 15.0874922,32.0579691 13.9962884,32.4347826 C12.9050847,32.8115961 11.7804936,33 10.6224814,33 C8.98938738,33 7.51962477,32.6811626 6.21314952,32.0434783 C4.90667427,31.4057939 3.79321775,30.55073 2.87274655,29.4782609 C1.95227536,28.4057917 1.2433747,27.1558042 0.74602333,25.7282609 C0.248671957,24.3007175 0,22.7971093 0,21.2173913 C0,19.739123 0.248671957,18.3224705 0.74602333,16.9673913 C1.2433747,15.6123121 1.95227536,14.4166718 2.87274655,13.3804348 C3.79321775,12.3441977 4.9103858,11.5217422 6.2242842,10.9130435 C7.5381826,10.3043448 9.01165673,10 10.6447508,10 C12.2184596,10 13.643684,10.2753596 14.9204666,10.826087 C16.1972492,11.3768143 17.2884366,12.1412995 18.1940615,13.1195652 C19.0996864,14.097831 19.793741,15.2499934 20.276246,16.576087 C20.7587511,17.9021805 21,19.3333257 21,20.8695652 L21,22.8695652 L5.38918346,22.8695652 Z M15.6553552,18.9782609 C15.5662774,18.2826052 15.3844128,17.6521767 15.1097561,17.0869565 C14.8350994,16.5217363 14.4750818,16.0326108 14.0296925,15.6195652 C13.5843032,15.2065197 13.0572671,14.8876823 12.4485684,14.6630435 C11.8398697,14.4384047 11.1717958,14.326087 10.4443266,14.326087 C9.77624268,14.326087 9.15641855,14.4492741 8.58483563,14.6956522 C8.01325271,14.9420302 7.50848575,15.2753602 7.07051962,15.6956522 C6.63255348,16.1159441 6.26882435,16.6086928 5.97932131,17.173913 C5.68981828,17.7391333 5.49310762,18.3405765 5.38918346,18.9782609 L15.6553552,18.9782609 Z" id="Combined-Shape" fill="#FFFFFF" fill-rule="nonzero"></path>
        </g>
    </g>
</svg>